TestCreationAction 1639233141698 GameTest.java ADD void scoreOfGameWithFinalStrikeShouldBe92()/2 METHOD ADD void scoreOfGameWithFinalStrikeShouldBe92()/2 METHOD
TestCreationAction 1639233150797 GameTest.java RENAME scoreOfGameWithFinalStrikeShouldBe92()/2=>void scoreOfPerShouldBe92() METHOD RENAME scoreOfGameWithFinalStrikeShouldBe92()/2=>void scoreOfPerShouldBe92() METHOD
TestCreationAction 1639233153372 GameTest.java RENAME scoreOfPerShouldBe92()=>void scoreOfPerfectGameShouldBe92() METHOD RENAME scoreOfPerShouldBe92()=>void scoreOfPerfectGameShouldBe92() METHOD
TestCreationAction 1639233159444 GameTest.java RENAME scoreOfPerfectGameShouldBe92()=>void scoreOfPerfectGameShouldBe() METHOD RENAME scoreOfPerfectGameShouldBe92()=>void scoreOfPerfectGameShouldBe() METHOD
TestCreationAction 1639233161004 GameTest.java RENAME scoreOfPerfectGameShouldBe()=>void scoreOfPerfectGameShouldBe300() METHOD RENAME scoreOfPerfectGameShouldBe()=>void scoreOfPerfectGameShouldBe300() METHOD
TestCreationAction 1639233292927 GameTest.java CHANGE GameTest.java CLASS CHANGE GameTest.java CLASS
EditAction 1639233292936 GameTest.java 5117 20 93 12
TestFailureAction 1639233293938 GameTest.java FAIL
EditAction 1639233443100 Game.java 3417 10 15 0
EditAction 1639233443133 Game.java 3417 10 15 0
EditAction 1639233443264 Game.java 3417 10 15 0
EditAction 1639233448910 Game.java 3417 10 15 0
EditAction 1639233449236 Game.java 3417 10 15 0
EditAction 1639233507893 Game.java 3417 10 15 0
EditAction 1639233508038 Game.java 3417 10 15 0
TestFailureAction 1639233515190 GameTest.java FAIL
EditAction 1639233522033 Game.java 3417 10 15 0
EditAction 1639233522503 Game.java 3417 10 15 0
EditAction 1639233547037 Game.java 3417 10 15 0
EditAction 1639233547171 Game.java 3417 10 15 0
TestFailureAction 1639233553325 GameTest.scoreOfPerfectGameShouldBe300.java FAIL
EditAction 1639233558606 Game.java 3417 10 15 0
EditAction 1639233558975 Game.java 3417 10 15 0
CodeEditingAction 1639233803879 Game.java CHANGE Game.java CLASS
EditAction 1639233803975 Game.java 3553 10 15 0
EditAction 1639233803991 Game.java 3553 10 15 0
EditAction 1639233804018 Game.java 3553 10 15 0
EditAction 1639233804141 Game.java 3553 10 15 0
TestPassAction 1639233804490 GameTest.scoreOfPerfectGameShouldBe300.java OK
TestPassAction 1639233808797 GameTest.scoreOfPerfectGameShouldBe300.java OK
CodeEditingAction 1639234179165 Game.java CHANGE Game.java CLASS
EditAction 1639234179269 Game.java 3555 10 15 0
EditAction 1639234179286 Game.java 3555 10 15 0
EditAction 1639234179308 Game.java 3555 10 15 0
EditAction 1639234179478 Game.java 3555 10 15 0
TestPassAction 1639234179809 GameTest.scoreOfPerfectGameShouldBe300.java OK
CodeEditingAction 1639234273959 Game.java CHANGE Game.java CLASS
EditAction 1639234274033 Game.java 3583 10 15 0
EditAction 1639234274051 Game.java 3583 10 15 0
EditAction 1639234274076 Game.java 3583 10 15 0
EditAction 1639234274200 Game.java 3583 10 15 0
TestPassAction 1639234274568 GameTest.java OK
CodeEditingAction 1639234365033 Game.java CHANGE Game() METHOD
CodeEditingAction 1639234370563 Game.java CHANGE Game() METHOD
CodeEditingAction 1639234376095 Game.java ADD int MA FIELD
CodeEditingAction 1639234377614 Game.java RENAME MA=>int MAX_ FIELD
CodeEditingAction 1639234384641 Game.java RENAME MAX_=>int MAX_GAME_SIZE FIELD
CodeEditingAction 1639234391699 Game.java ADD int MAX_GAME_SIZE/2 FIELD
CodeEditingAction 1639234394737 Game.java RENAME MAX_GAME_SIZE/2=>int MIN_GAME_SIZE FIELD
CodeEditingAction 1639234565098 Game.java CHANGE Game.java CLASS
EditAction 1639234565208 Game.java 3765 10 15 0
TestFailureAction 1639234565874 GameTest.java FAIL
EditAction 1639234566006 Game.java 3765 10 15 0
EditAction 1639234573076 Game.java 3765 10 15 0
EditAction 1639234573243 Game.java 3765 10 15 0
TestFailureAction 1639234579773 GameTest.java FAIL
CodeEditingAction 1639234661343 Game.java CHANGE Game.java CLASS
EditAction 1639234661443 Game.java 3553 10 15 0
TestPassAction 1639234662017 GameTest.java OK
CodeEditingAction 1639234739547 Game.java CHANGE Game() METHOD
CodeEditingAction 1639234745590 Game.java ADD int MAX_GAME_ FIELD
CodeEditingAction 1639234747107 Game.java RENAME MAX_GAME_=>int MAX_GAME_SIZE FIELD
CodeEditingAction 1639234756146 Game.java ADD int MAX_GAME_SIZE/2 FIELD
CodeEditingAction 1639234759165 Game.java RENAME MAX_GAME_SIZE/2=>int MIN_GAME_SIZE FIELD
CodeEditingAction 1639234859880 Game.java CHANGE Game.java CLASS
EditAction 1639234859979 Game.java 3791 10 15 0
TestPassAction 1639234860482 GameTest.java OK
EditAction 1639234860567 Game.java 3791 10 15 0
CodeEditingAction 1639234938033 Game.java CHANGE int MIN_GAME_SIZE FIELD
CodeEditingAction 1639234941556 Game.java CHANGE int MAX_GAME_SIZE FIELD
CodeEditingAction 1639234946920 Game.java CHANGE Game.java CLASS
EditAction 1639234947004 Game.java 3805 10 15 0
TestPassAction 1639234947525 GameTest.java OK
EditAction 1639234947611 Game.java 3805 10 15 0
EditAction 1639234953471 Game.java 3805 10 15 0
EditAction 1639234958353 Game.java 3805 10 15 0
CodeEditingAction 1639234964702 Game.java CHANGE Game.java CLASS
EditAction 1639234964765 Game.java 3805 10 15 0
TestPassAction 1639234965243 GameTest.java OK
TestPassAction 1639235038525 FrameTest.java OK
